Comparative analysis of the Kluc tumor scRNAseq data
…
4cf95d7

heinin

2024-03-12

# Saving to a file
write.table(sig_markers, "/scratch/hnatri/CART/PD1_CART_celltype_markers.tsv",
            sep = "\t", quote = F, row.names = F)

# Top markers for each cluster
sig_markers %>% group_by(group) %>% slice_max(order_by = auc, n = 10)

# A tibble: 160 × 10
# Groups:   group [16]
   feature group avgExpr  logFC statistic   auc  pval  padj pct_in pct_out
   <chr>   <chr>   <dbl>  <dbl>     <dbl> <dbl> <dbl> <dbl>  <dbl>   <dbl>
 1 CD79B   B1       8.07   7.89 62293006. 0.975     0     0   96.4  12.9  
 2 CD79A   B1      12.0   12.0  62271029  0.974     0     0   95.2   1.14 
 3 LY6D    B1      17.2   16.6  62213838  0.973     0     0   97.2   3.14 
 4 IGKC    B1     643.   642.   61544516  0.963     0     0   94.3  16.6  
 5 EBF1    B1      18.1   18.0  60798972. 0.951     0     0   90.8   1.11 
 6 IGLC1   B1       7.65   7.48 60499564  0.946     0     0   91.4   2.07 
 7 IGHM    B1      86.4   84.5  59814459. 0.936     0     0   95.7  54.7  
 8 MS4A1   B1       6.62   6.59 59724680  0.934     0     0   87.3   0.802
 9 BANK1   B1      15.6   15.1  59243218  0.927     0     0   89.3  14.8  
10 PAX5    B1       4.31   4.29 58841820. 0.921     0     0   84.6   0.690
# ℹ 150 more rows
…
